{
	"info": {
		"_postman_id": "cbedecf0-fdab-4e9f-b0b2-d496cb514e5a",
		"name": "onboarding-cross-notification-manager",
		"schema": "https://schema.getpostman.com/json/collection/v2.1.0/collection.json"
	},
	"item": [
		{
			"name": "http://localhost:7120/onboarding/cross/notification/health",
			"event": [
				{
					"listen": "test",
					"script": {
						"id": "669a0b85-5b36-4ffb-ad04-2f09bb26e505",
						"exec": [
							"pm.test(\"Status code is 200\", function () {",
							"    pm.response.to.have.status(200);",
							"});"
						],
						"type": "text/javascript"
					}
				}
			],
			"request": {
				"method": "GET",
				"header": [
					{
						"key": "x-flow-session-id",
						"type": "text",
						"value": "SessionIdLocal"
					},
					{
						"key": "x-flow-channel-id",
						"type": "text",
						"value": "Web"
					},
					{
						"key": "x-flow-commerce",
						"type": "text",
						"value": "CMR"
					},
					{
						"key": "x-flow-country",
						"type": "text",
						"value": "AR"
					},
					{
						"key": "Content-Type",
						"name": "Content-Type",
						"type": "text",
						"value": "application/json"
					}
				],
				"url": {
					"raw": "http://localhost:7120/onboarding/cross/notification/health",
					"protocol": "http",
					"host": [
						"localhost"
					],
					"port": "7120",
					"path": [
						"onboarding",
						"cross",
						"notification",
						"health"
					]
				},
				"description": "Get Request Health"
			},
			"response": []
		},
		{
			"name": "http://localhost:7120/onboarding/cross/notification/employment-info_OK",
			"event": [
				{
					"listen": "test",
					"script": {
						"id": "669a0b85-5b36-4ffb-ad04-2f09bb26e505",
						"exec": [
							"pm.test(\"Status code is 200\", function () {",
							"    pm.response.to.have.status(200);",
							"});"
						],
						"type": "text/javascript"
					}
				}
			],
			"request": {
				"method": "POST",
				"header": [
					{
						"key": "x-flow-session-id",
						"type": "text",
						"value": "responseOk"
					},
					{
						"key": "x-flow-channel-id",
						"type": "text",
						"value": "Web"
					},
					{
						"key": "x-flow-commerce",
						"type": "text",
						"value": "CMR"
					},
					{
						"key": "x-flow-country",
						"type": "text",
						"value": "AR"
					},
					{
						"key": "Content-Type",
						"name": "Content-Type",
						"type": "text",
						"value": "application/json"
					},
					{
						"key": "x-session-id",
						"type": "text",
						"value": "requisitionCreated"
					}
				],
				"body": {
					"mode": "raw",
					"raw": "{\n\t\"occupation\":\"513\",\n\t\"nationality\":\"ARG\",\n\t\"cuil\":\"7345623977\"\n}"
				},
				"url": {
					"raw": "http://localhost:7120/onboarding/cross/notification/employment-info",
					"protocol": "http",
					"host": [
						"localhost"
					],
					"port": "7120",
					"path": [
						"onboarding",
						"cross",
						"notification",
						"employment-info"
					]
				},
				"description": "Se envian datos de ocupación a Redis"
			},
			"response": []
		},
		{
			"name": "http://localhost:7120/onboarding/cross/notification/employment-info_FAIL",
			"event": [
				{
					"listen": "test",
					"script": {
						"id": "669a0b85-5b36-4ffb-ad04-2f09bb26e505",
						"exec": [
							"pm.test(\"Status code is 200\", function () {",
							"    pm.response.to.have.status(200);",
							"});"
						],
						"type": "text/javascript"
					}
				}
			],
			"request": {
				"method": "POST",
				"header": [
					{
						"key": "x-flow-session-id",
						"value": "responseFail"
					},
					{
						"key": "x-flow-channel-id",
						"value": "Web"
					},
					{
						"key": "x-flow-commerce",
						"value": "CMR"
					},
					{
						"key": "x-flow-country",
						"value": "AR"
					},
					{
						"key": "Content-Type",
						"value": "application/json"
					},
					{
						"key": "x-session-id",
						"value": "requisitionCreated"
					}
				],
				"body": {
					"mode": "raw",
					"raw": "{\n\t\"occupation\":\"513\",\n\t\"nationality\":\"ARG\",\n\t\"cuil\":\"734562397\"\n}"
				},
				"url": {
					"raw": "http://localhost:7120/onboarding/cross/notification/employment-info",
					"protocol": "http",
					"host": [
						"localhost"
					],
					"port": "7120",
					"path": [
						"onboarding",
						"cross",
						"notification",
						"employment-info"
					]
				},
				"description": "Se envian datos de ocupación a Redis"
			},
			"response": []
		},
		{
			"name": "http://localhost:7120/onboarding/cross/notification/employment-info_ERROR",
			"event": [
				{
					"listen": "test",
					"script": {
						"id": "669a0b85-5b36-4ffb-ad04-2f09bb26e505",
						"exec": [
							"pm.test(\"Status code is 200\", function () {",
							"    pm.response.to.have.status(200);",
							"});"
						],
						"type": "text/javascript"
					}
				}
			],
			"request": {
				"method": "POST",
				"header": [
					{
						"key": "x-flow-session-id",
						"value": "responseError"
					},
					{
						"key": "x-flow-channel-id",
						"value": "Web"
					},
					{
						"key": "x-flow-commerce",
						"value": "CMR"
					},
					{
						"key": "x-flow-country",
						"value": "AR"
					},
					{
						"key": "Content-Type",
						"value": "application/json"
					},
					{
						"key": "x-session-id",
						"value": "requisitionCreated"
					}
				],
				"body": {
					"mode": "raw",
					"raw": "{\n\t\"occupation\":\"513\",\n\t\"nationality\":\"ARG\",\n\t\"cuil\":\"734562397\"\n}"
				},
				"url": {
					"raw": "http://localhost:7120/onboarding/cross/notification/employment-info",
					"protocol": "http",
					"host": [
						"localhost"
					],
					"port": "7120",
					"path": [
						"onboarding",
						"cross",
						"notification",
						"employment-info"
					]
				},
				"description": "Se envian datos de ocupación a Redis"
			},
			"response": []
		}
	],
	"event": [
		{
			"listen": "prerequest",
			"script": {
				"id": "11cd35e3-5b3b-4a30-88d8-b81fd31014a2",
				"type": "text/javascript",
				"exec": [
					""
				]
			}
		},
		{
			"listen": "test",
			"script": {
				"id": "2c896de8-d35b-48b3-967f-132355928238",
				"type": "text/javascript",
				"exec": [
					""
				]
			}
		}
	],
	"protocolProfileBehavior": {}
}